test_jpeg/test/test.vcd
$date
    Fri Jun 17 00:53:53 2016
$end
$version
    MyHDL 1.0dev
$end
$timescale
    1ns
$end

$scope module test $end
$var reg 1 ! bufferdatabus_buffer_sel $end
$var reg 1 " rleconfig_sof $end
$var reg 1 # clock $end
$var reg 1 $ reset $end
$scope module rletop_0 $end
$var reg 1 % bufferdatabus_dovalid $end
$var reg 1 & dfifo_buffer_sel $end
$var reg 12 ' bufferdatabus_amplitude $end
$var reg 1 $ reset $end
$var reg 20 ( dfifo_data_out $end
$var reg 1 ) indatastream_start $end
$var reg 1 # clock $end
$var reg 1 * dfifo_fifo_empty $end
$var reg 1 + datastream_temp_start $end
$var reg 1 , indatastream_ready $end
$var reg 1 - rlesymbols_temp_dovalid $end
$var reg 1 . dfifo_write_enable $end
$var reg 20 / dfifo_data_in $end
$var reg 12 0 indatastream_input_val $end
$var reg 1 ! bufferdatabus_buffer_sel $end
$var reg 12 1 datastream_temp_input_val $end
$var reg 1 2 bufferdatabus_read_enable $end
$var reg 1 3 bufferdatabus_fifo_empty $end
$var reg 4 4 bufferdatabus_runlength $end
$var reg 1 5 dfifo_read_req $end
$var reg 4 6 rlesymbols_temp_runlength $end
$var reg 4 7 rlesymbols_temp_size $end
$var reg 4 8 bufferdatabus_size $end
$var reg 12 9 rlesymbols_temp_amplitude $end
$var reg 7 : wr_cnt $end
$scope module rle_0 $end
$var reg 7 ; zero_cnt $end
$var reg 4 6 rlesymbols_runlength $end
$var reg 12 9 rlesymbols_amplitude $end
$var reg 1 $ reset $end
$var reg 3 < rleconfig_color_component $end
$var reg 1 " rleconfig_sof $end
$var reg 6 = rleconfig_read_addr $end
$var reg 1 # clock $end
$var reg 1 - rlesymbols_dovalid $end
$var reg 12 > prev_dc_1 $end
$var reg 1 ? read_en $end
$var reg 12 @ zrl_data_in $end
$var reg 1 A zrl_processing $end
$var reg 1 B rlesymbols_temp_dovalid $end
$var reg 1 C divalid $end
$var reg 4 7 rlesymbols_size $end
$var reg 7 D write_cnt $end
$var reg 1 + datastream_start $end
$var reg 4 E rlesymbols_temp_runlength $end
$var reg 12 F prev_dc_0 $end
$var reg 7 G read_cnt $end
$var reg 12 1 datastream_input_val $end
$var reg 4 H rlesymbols_temp_size $end
$var reg 12 I prev_dc_2 $end
$var reg 12 J rlesymbols_temp_amplitude $end
$var reg 1 K divalid_en $end
$var reg 13 L accumulator $end
$scope module entropycoder_0 $end
$var reg 4 H size $end
$var reg 12 J amplitude $end
$var reg 1 # clock $end
$var reg 13 L input_value $end
$var reg 1 $ reset $end
$upscope $end
$upscope $end
$scope module rledoublefifo_0 $end
$var reg 1 M fbus2_read $end
$var reg 1 N fbus2_empty $end
$var reg 20 O fifo_data_in $end
$var reg 1 # clock $end
$var reg 1 5 dfifo_bus_read_req $end
$var reg 20 P fbus1_write_data $end
$var reg 20 ( dfifo_bus_data_out $end
$var reg 20 Q fbus2_write_data $end
$var reg 1 . dfifo_bus_write_enable $end
$var reg 20 R fbus2_read_data $end
$var reg 1 S fbus2_write $end
$var reg 1 $ reset $end
$var reg 1 & dfifo_bus_buffer_sel $end
$var reg 1 T fbus1_write $end
$var reg 1 U fbus1_read $end
$var reg 1 V fbus1_empty $end
$var reg 20 / dfifo_bus_data_in $end
$var reg 20 W fbus1_read_data $end
$var reg 1 * dfifo_bus_fifo_empty $end
$scope module fifo_sync_0 $end
$var reg 1 V fbus_empty $end
$var reg 7 X nvacant $end
$var reg 6 Y wptr $end
$var reg 6 Z rptr $end
$var reg 1 $ reset $end
$var reg 1 T fbus_write $end
$var reg 1 [ fbus_read_valid $end
$var reg 1 \ fbus_clear $end
$var reg 1 T write $end
$var reg 1 # clock $end
$var reg 1 ] vld $end
$var reg 7 ^ ntenant $end
$var reg 1 _ fbus_full $end
$var reg 1 U read $end
$var reg 1 U fbus_read $end
$scope module fifo_mem_generic_0 $end
$var reg 20 W dout $end
$var reg 20 ` _dout $end
$var reg 6 Z addr_r $end
$var reg 1 T wr $end
$var reg 6 a _addr_w $end
$var reg 1 # rclk $end
$var reg 1 # wclk $end
$var reg 1 b _wr $end
$var reg 20 P din $end
$var reg 20 c _din $end
$var reg 6 Y addr_w $end
$scope module mem $end
$var reg 20 d mem(0) $end
$var reg 20 e mem(1) $end
$var reg 20 f mem(2) $end
$var reg 20 g mem(3) $end
$var reg 20 h mem(4) $end
$var reg 20 i mem(5) $end
$var reg 20 j mem(6) $end
$var reg 20 k mem(7) $end
$var reg 20 l mem(8) $end
$var reg 20 m mem(9) $end
$var reg 20 n mem(10) $end
$var reg 20 o mem(11) $end
$var reg 20 p mem(12) $end
$var reg 20 q mem(13) $end
$var reg 20 r mem(14) $end
$var reg 20 s mem(15) $end
$var reg 20 t mem(16) $end
$var reg 20 u mem(17) $end
$var reg 20 v mem(18) $end
$var reg 20 w mem(19) $end
$var reg 20 x mem(20) $end
$var reg 20 y mem(21) $end
$var reg 20 z mem(22) $end
$var reg 20 { mem(23) $end
$var reg 20 | mem(24) $end
$var reg 20 } mem(25) $end
$var reg 20 ~ mem(26) $end
$var reg 20 "! mem(27) $end
$var reg 20 "" mem(28) $end
$var reg 20 "# mem(29) $end
$var reg 20 "$ mem(30) $end
$var reg 20 "% mem(31) $end
$var reg 20 "& mem(32) $end
$var reg 20 "' mem(33) $end
$var reg 20 "( mem(34) $end
$var reg 20 ") mem(35) $end
$var reg 20 "* mem(36) $end
$var reg 20 "+ mem(37) $end
$var reg 20 ", mem(38) $end
$var reg 20 "- mem(39) $end
$var reg 20 ". mem(40) $end
$var reg 20 "/ mem(41) $end
$var reg 20 "0 mem(42) $end
$var reg 20 "1 mem(43) $end
$var reg 20 "2 mem(44) $end
$var reg 20 "3 mem(45) $end
$var reg 20 "4 mem(46) $end
$var reg 20 "5 mem(47) $end
$var reg 20 "6 mem(48) $end
$var reg 20 "7 mem(49) $end
$var reg 20 "8 mem(50) $end
$var reg 20 "9 mem(51) $end
$var reg 20 ": mem(52) $end
$var reg 20 "; mem(53) $end
$var reg 20 "< mem(54) $end
$var reg 20 "= mem(55) $end
$var reg 20 "> mem(56) $end
$var reg 20 "? mem(57) $end
$var reg 20 "@ mem(58) $end
$var reg 20 "A mem(59) $end
$var reg 20 "B mem(60) $end
$var reg 20 "C mem(61) $end
$var reg 20 "D mem(62) $end
$var reg 20 "E mem(63) $end
$upscope $end
$upscope $end
$upscope $end
$scope module fifo_sync_1 $end
$var reg 1 N fbus_empty $end
$var reg 7 "F nvacant $end
$var reg 6 "G wptr $end
$var reg 6 "H rptr $end
$var reg 1 $ reset $end
$var reg 1 S fbus_write $end
$var reg 1 "I fbus_read_valid $end
$var reg 1 "J fbus_clear $end
$var reg 1 S write $end
$var reg 1 # clock $end
$var reg 1 "K vld $end
$var reg 7 "L ntenant $end
$var reg 1 "M fbus_full $end
$var reg 1 M read $end
$var reg 1 M fbus_read $end
$scope module fifo_mem_generic_1 $end
$var reg 20 R dout $end
$var reg 20 "N _dout $end
$var reg 6 "H addr_r $end
$var reg 1 S wr $end
$var reg 6 "O _addr_w $end
$var reg 1 # rclk $end
$var reg 1 # wclk $end
$var reg 1 "P _wr $end
$var reg 20 Q din $end
$var reg 20 "Q _din $end
$var reg 6 "G addr_w $end
$scope module mem $end
$var reg 20 "R mem(0) $end
$var reg 20 "S mem(1) $end
$var reg 20 "T mem(2) $end
$var reg 20 "U mem(3) $end
$var reg 20 "V mem(4) $end
$var reg 20 "W mem(5) $end
$var reg 20 "X mem(6) $end
$var reg 20 "Y mem(7) $end
$var reg 20 "Z mem(8) $end
$var reg 20 "[ mem(9) $end
$var reg 20 "\ mem(10) $end
$var reg 20 "] mem(11) $end
$var reg 20 "^ mem(12) $end
$var reg 20 "_ mem(13) $end
$var reg 20 "` mem(14) $end
$var reg 20 "a mem(15) $end
$var reg 20 "b mem(16) $end
$var reg 20 "c mem(17) $end
$var reg 20 "d mem(18) $end
$var reg 20 "e mem(19) $end
$var reg 20 "f mem(20) $end
$var reg 20 "g mem(21) $end
$var reg 20 "h mem(22) $end
$var reg 20 "i mem(23) $end
$var reg 20 "j mem(24) $end
$var reg 20 "k mem(25) $end
$var reg 20 "l mem(26) $end
$var reg 20 "m mem(27) $end
$var reg 20 "n mem(28) $end
$var reg 20 "o mem(29) $end
$var reg 20 "p mem(30) $end
$var reg 20 "q mem(31) $end
$var reg 20 "r mem(32) $end
$var reg 20 "s mem(33) $end
$var reg 20 "t mem(34) $end
$var reg 20 "u mem(35) $end
$var reg 20 "v mem(36) $end
$var reg 20 "w mem(37) $end
$var reg 20 "x mem(38) $end
$var reg 20 "y mem(39) $end
$var reg 20 "z mem(40) $end
$var reg 20 "{ mem(41) $end
$var reg 20 "| mem(42) $end
$var reg 20 "} mem(43) $end
$var reg 20 "~ mem(44) $end
$var reg 20 #! mem(45) $end
$var reg 20 #" mem(46) $end
$var reg 20 ## mem(47) $end
$var reg 20 #$ mem(48) $end
$var reg 20 #% mem(49) $end
$var reg 20 #& mem(50) $end
$var reg 20 #' mem(51) $end
$var reg 20 #( mem(52) $end
$var reg 20 #) mem(53) $end
$var reg 20 #* mem(54) $end
$var reg 20 #+ mem(55) $end
$var reg 20 #, mem(56) $end
$var reg 20 #- mem(57) $end
$var reg 20 #. mem(58) $end
$var reg 20 #/ mem(59) $end
$var reg 20 #0 mem(60) $end
$var reg 20 #1 mem(61) $end
$var reg 20 #2 mem(62) $end
$var reg 20 #3 mem(63) $end
$upscope $end
$upscope $end
$upscope $end
$upscope $end
$upscope $end
$upscope $end

$enddefinitions $end
$dumpvars
0!
0"
0#
0$
0%
0&
b000000000000 '
b00000000000000000000 (
0)
1*
0+
0,
0-
0.
b00000000000000000000 /
b000000000000 0
b000000000000 1
02
03
b0000 4
05
b0000 6
b0000 7
b0000 8
b000000000000 9
b0000000 :
b0000000 ;
b000 <
b000000 =
b000000000000 >
0?
b000000000000 @
0A
0B
0C
b0000000 D
b0000 E
b000000000000 F
b0000000 G
b0000 H
b000000000000 I
b000000000000 J
0K
b0000000000000 L
0M
1N
b00000000000000000000 O
b00000000000000000000 P
b00000000000000000000 Q
b00000000000000000000 R
0S
0T
0U
1V
b00000000000000000000 W
b1000000 X
b000000 Y
b000000 Z
0[
0\
0]
b0000000 ^
0_
b00000000000000000000 `
b000000 a
0b
b00000000000000000000 c
b00000000000000000000 d
b00000000000000000000 e
b00000000000000000000 f
b00000000000000000000 g
b00000000000000000000 h
b00000000000000000000 i
b00000000000000000000 j
b00000000000000000000 k
b00000000000000000000 l
b00000000000000000000 m
b00000000000000000000 n
b00000000000000000000 o
b00000000000000000000 p
b00000000000000000000 q
b00000000000000000000 r
b00000000000000000000 s
b00000000000000000000 t
b00000000000000000000 u
b00000000000000000000 v
b00000000000000000000 w
b00000000000000000000 x
b00000000000000000000 y
b00000000000000000000 z
b00000000000000000000 {
b00000000000000000000 |
b00000000000000000000 }
b00000000000000000000 ~
b00000000000000000000 "!
b00000000000000000000 ""
b00000000000000000000 "#
b00000000000000000000 "$
b00000000000000000000 "%
b00000000000000000000 "&
b00000000000000000000 "'
b00000000000000000000 "(
b00000000000000000000 ")
b00000000000000000000 "*
b00000000000000000000 "+
b00000000000000000000 ",
b00000000000000000000 "-
b00000000000000000000 ".
b00000000000000000000 "/
b00000000000000000000 "0
b00000000000000000000 "1
b00000000000000000000 "2
b00000000000000000000 "3
b00000000000000000000 "4
b00000000000000000000 "5
b00000000000000000000 "6
b00000000000000000000 "7
b00000000000000000000 "8
b00000000000000000000 "9
b00000000000000000000 ":
b00000000000000000000 ";
b00000000000000000000 "<
b00000000000000000000 "=
b00000000000000000000 ">
b00000000000000000000 "?
b00000000000000000000 "@
b00000000000000000000 "A
b00000000000000000000 "B
b00000000000000000000 "C
b00000000000000000000 "D
b00000000000000000000 "E
b1000000 "F
b000000 "G
b000000 "H
0"I
0"J
0"K
b0000000 "L
0"M
b00000000000000000000 "N
b000000 "O
0"P
b00000000000000000000 "Q
b00000000000000000000 "R
b00000000000000000000 "S
b00000000000000000000 "T
b00000000000000000000 "U
b00000000000000000000 "V
b00000000000000000000 "W
b00000000000000000000 "X
b00000000000000000000 "Y
b00000000000000000000 "Z
b00000000000000000000 "[
b00000000000000000000 "\
b00000000000000000000 "]
b00000000000000000000 "^
b00000000000000000000 "_
b00000000000000000000 "`
b00000000000000000000 "a
b00000000000000000000 "b
b00000000000000000000 "c
b00000000000000000000 "d
b00000000000000000000 "e
b00000000000000000000 "f
b00000000000000000000 "g
b00000000000000000000 "h
b00000000000000000000 "i
b00000000000000000000 "j
b00000000000000000000 "k
b00000000000000000000 "l
b00000000000000000000 "m
b00000000000000000000 "n
b00000000000000000000 "o
b00000000000000000000 "p
b00000000000000000000 "q
b00000000000000000000 "r
b00000000000000000000 "s
b00000000000000000000 "t
b00000000000000000000 "u
b00000000000000000000 "v
b00000000000000000000 "w
b00000000000000000000 "x
b00000000000000000000 "y
b00000000000000000000 "z
b00000000000000000000 "{
b00000000000000000000 "|
b00000000000000000000 "}
b00000000000000000000 "~
b00000000000000000000 #!
b00000000000000000000 #"
b00000000000000000000 ##
b00000000000000000000 #$
b00000000000000000000 #%
b00000000000000000000 #&
b00000000000000000000 #'
b00000000000000000000 #(
b00000000000000000000 #)
b00000000000000000000 #*
b00000000000000000000 #+
b00000000000000000000 #,
b00000000000000000000 #-
b00000000000000000000 #.
b00000000000000000000 #/
b00000000000000000000 #0
b00000000000000000000 #1
b00000000000000000000 #2
b00000000000000000000 #3
$end
13
1$
#10
1#
#20
0#
#30
1#
0$
#40
0#
#50
1#
b001 <
1)
1+
#60
0#
#70
1#
0)
1?
1K
0+
#80
0#
#90
1#
1C
b0000001 G
b000000000001 0
b000000000001 1
b000001 =
#100
0#
#110
1#
b000000001100 0
1B
b0000010 G
b0000001 D
b0000000000001 L
b000000000001 F
b000010 =
b000000001100 1
#120
0#
#130
1#
b000000000001 J
b0001 H
1-
b0000011 G
b0000010 D
b0000000001100 L
b000000000000 0
b000000000000 1
b0001 7
b000000000001 9
b000011 =
1.
b00000001000000000001 /
#140
0#
#150
1#
0B
b0000100 G
b0000011 D
b0000001 ;
b000000001100 J
b0100 H
1T
b00000001000000000001 O
b0000001 :
b00000001000000000001 P
b00000001000000000001 Q
b0100 7
b000000001100 9
b000100 =
b00000100000000001100 /
#160
0#
#170
1#
b0000010 :
b00000100000000001100 O
b0111111 X
b0000001 ^
0V
b000001 Y
0-
b0000101 G
b0000100 D
b0000010 ;
1b
b00000001000000000001 c
b00000001000000000001 "Q
b000101 =
0.
b00000100000000001100 P
b00000100000000001100 Q
#180
0#
#190
1#
b00000100000000001100 "Q
b00000001000000000001 d
b000001 a
b00000100000000001100 c
b0000110 G
b0000101 D
b0000011 ;
b000010 Y
b0111110 X
b0000010 ^
0T
b000110 =
#200
0#
#210
1#
b0000111 G
b0000110 D
b0000100 ;
b00000001000000000001 `
0b
b000010 a
b00000100000000001100 e
b00000001000000000001 W
b000111 =
#220
0#
#230
1#
b0001000 G
b0000111 D
b0000101 ;
b001000 =
#240
0#
#250
1#
b0001001 G
b0001000 D
b0000110 ;
b001001 =
#260
0#
#270
1#
b0001010 G
b0001001 D
b0000111 ;
b001010 =
#280
0#
#290
1#
b0001011 G
b0001010 D
b0001000 ;
b001011 =
#300
0#
#310
1#
b0001100 G
b0001011 D
b0001001 ;
b001100 =
#320
0#
#330
1#
b0001101 G
b0001100 D
b0001010 ;
b001101 =
#340
0#
#350
1#
b0001110 G
b0001101 D
b0001011 ;
b001110 =
#360
0#
#370
1#
b0001111 G
b0001110 D
b0001100 ;
b001111 =
#380
0#
#390
1#
b0010000 G
b0001111 D
b0001101 ;
b010000 =
#400
0#
#410
1#
b0010001 G
b0010000 D
b0001110 ;
b010001 =
#420
0#
#430
1#
b0010010 G
b0010001 D
b0001111 ;
b010010 =
#440
0#
#450
1#
b0010011 G
b0010010 D
b0010000 ;
b010011 =
#460
0#
#470
1#
b000000001010 0
b0010100 G
b0010011 D
b0010001 ;
b010100 =
b000000001010 1
#480
0#
#490
1#
1B
b1111 E
0C
b0010100 D
b0000000000000 L
b0000010 ;
1A
b000000001010 @
b000000000010 0
b000000000010 1
#500
0#
#510
1#
b0010 E
b1111 6
1-
1C
b0010101 G
b0000000001010 L
b0000000 ;
0A
b000000000000 J
b0000 H
b0000 7
b000000000000 9
b010101 =
b11110100000000001100 /
1.
b11110000000000000000 /
#520
0#
#530
1#
b0010010 :
1T
b11110000000000000000 O
b000000001010 J
b0100 H
b0000 E
b0010 6
b0010110 G
b0010101 D
b0000000000010 L
b000000000011 0
b000000000011 1
b0100 7
b000000001010 9
b010110 =
b00100000000000000000 /
b11110000000000000000 P
b11110000000000000000 Q
b00100100000000001010 /
#540
0#
#550
1#
b000000000100 0
b11110000000000000000 "Q
1b
b11110000000000000000 c
b0000 6
b0010111 G
b0010110 D
b0000000000011 L
b000000000010 J
b0010 H
b000011 Y
b0111101 X
b0000011 ^
b00100100000000001010 O
b0010101 :
b00100100000000001010 P
b00100100000000001010 Q
b0010 7
b000000000010 9
b010111 =
b00000100000000001010 /
b000000000100 1
b00000010000000000010 /
#560
0#
#570
1#
b0010110 :
b00000010000000000010 O
b0111100 X
b0000100 ^
b000100 Y
b000000000011 J
b0011000 G
b0010111 D
b0000000000100 L
b000011 a
b00100100000000001010 c
b11110000000000000000 f
b00100100000000001010 "Q
b000000000000 0
b000000000000 1
b000000000011 9
b011000 =
b00000010000000000010 P
b00000010000000000010 Q
b00000010000000000011 /
#580
0#
#590
1#
b00000010000000000010 "Q
b00100100000000001010 g
b000100 a
b00000010000000000010 c
0B
b0011001 G
b0011000 D
b0000001 ;
b000000000100 J
b0011 H
b000101 Y
b0111011 X
b0000101 ^
b00000010000000000011 O
b0010111 :
b00000010000000000011 P
b00000010000000000011 Q
b0011 7
b000000000100 9
b011001 =
b00000011000000000100 /
#600
0#
#610
1#
b0011000 :
b00000011000000000100 O
b0111010 X
b0000110 ^
b000110 Y
0-
b0011010 G
b0011001 D
b0000010 ;
b000101 a
b00000010000000000011 c
b00000010000000000010 h
b00000010000000000011 "Q
b011010 =
0.
b00000011000000000100 P
b00000011000000000100 Q
#620
0#
#630
1#
b00000011000000000100 "Q
b00000010000000000011 i
b000110 a
b00000011000000000100 c
b0011011 G
b0011010 D
b0000011 ;
b000111 Y
b0111001 X
b0000111 ^
0T
b011011 =
#640
0#
#650
1#
b0011100 G
b0011011 D
b0000100 ;
0b
b000111 a
b00000011000000000100 j
b011100 =
#660
0#
#670
1#
b0011101 G
b0011100 D
b0000101 ;
b011101 =
#680
0#
#690
1#
b0011110 G
b0011101 D
b0000110 ;
b011110 =
#700
0#
#710
1#
b0011111 G
b0011110 D
b0000111 ;
b011111 =
#720
0#
#730
1#
b0100000 G
b0011111 D
b0001000 ;
b100000 =
#740
0#
#750
1#
b0100001 G
b0100000 D
b0001001 ;
b100001 =
#760
0#
#770
1#
b0100010 G
b0100001 D
b0001010 ;
b100010 =
#780
0#
#790
1#
b0100011 G
b0100010 D
b0001011 ;
b100011 =
#800
0#
#810
1#
b0100100 G
b0100011 D
b0001100 ;
b100100 =
#820
0#
#830
1#
b0100101 G
b0100100 D
b0001101 ;
b100101 =
#840
0#
#850
1#
b0100110 G
b0100101 D
b0001110 ;
b100110 =
#860
0#
#870
1#
b0100111 G
b0100110 D
b0001111 ;
b100111 =
#880
0#
#890
1#
b0101000 G
b0100111 D
b0010000 ;
b101000 =
#900
0#
#910
1#
b0101001 G
b0101000 D
b0010001 ;
b101001 =
#920
0#
#930
1#
b0101010 G
b0101001 D
b0010010 ;
b101010 =
#940
0#
#950
1#
b0101011 G
b0101010 D
b0010011 ;
b101011 =
#960
0#
#970
1#
b0101100 G
b0101011 D
b0010100 ;
b101100 =
#980
0#
#990
1#
b0101101 G
b0101100 D
b0010101 ;
b101101 =
#1000
0#
#1010
1#
b0101110 G
b0101101 D
b0010110 ;
b101110 =
#1020
0#
#1030
1#
b0101111 G
b0101110 D
b0010111 ;
b101111 =
#1040
0#
#1050
1#
b0110000 G
b0101111 D
b0011000 ;
b110000 =
#1060
0#
#1070
1#
b0110001 G
b0110000 D
b0011001 ;
b110001 =
#1080
0#
#1090
1#
b0110010 G
b0110001 D
b0011010 ;
b110010 =
#1100
0#
#1110
1#
b0110011 G
b0110010 D
b0011011 ;
b110011 =
#1120
0#
#1130
1#
b0110100 G
b0110011 D
b0011100 ;
b110100 =
#1140
0#
#1150
1#
b0110101 G
b0110100 D
b0011101 ;
b110101 =
#1160
0#
#1170
1#
b0110110 G
b0110101 D
b0011110 ;
b110110 =
#1180
0#
#1190
1#
b0110111 G
b0110110 D
b0011111 ;
b110111 =
#1200
0#
#1210
1#
b0111000 G
b0110111 D
b0100000 ;
b111000 =
#1220
0#
#1230
1#
b0111001 G
b0111000 D
b0100001 ;
b111001 =
#1240
0#
#1250
1#
b0111010 G
b0111001 D
b0100010 ;
b111010 =
#1260
0#
#1270
1#
b0111011 G
b0111010 D
b0100011 ;
b111011 =
#1280
0#
#1290
1#
b0111100 G
b0111011 D
b0100100 ;
b111100 =
#1300
0#
#1310
1#
b000000000001 0
b0111101 G
b0111100 D
b0100101 ;
b111101 =
b000000000001 1
#1320
0#
#1330
1#
1B
b1111 E
0C
b0111101 D
b0000000000000 L
b0010110 ;
1A
b000000000001 @
b000000000000 0
b000000000000 1
#1340
0#
#1350
1#
b1111 6
1-
b0000111 ;
b000000000000 J
b0000 H
b0000 7
b000000000000 9
b11110011000000000100 /
1.
b11110000000000000000 /
#1360
0#
#1370
1#
b0101000 :
1T
b11110000000000000000 O
b0111 E
1C
b0111110 G
b0000000000001 L
b0000000 ;
0A
b111110 =
b11110000000000000000 P
b11110000000000000000 Q
#1380
0#
#1390
1#
b11110000000000000000 "Q
1b
b11110000000000000000 c
0B
b0000 E
b0111 6
b0111111 G
b0111110 D
b0000001 ;
b000000000001 J
b0001 H
b001000 Y
b0111000 X
b0001000 ^
b0111000 :
b0001 7
b000000000001 9
b111111 =
b01110000000000000000 /
b01110001000000000001 /
#1400
0#
#1410
1#
1,
b1000000 :
b01110001000000000001 O
b0110111 X
b0001001 ^
b001001 Y
b0000 6
0-
b0000000 G
0?
b0111111 D
b0000010 ;
b001000 a
b11110000000000000000 k
b000000 =
b00000001000000000001 /
0.
b01110001000000000001 P
b01110001000000000001 Q
#1420
0#
#1430
1#
b01110001000000000001 "Q
b11110000000000000000 l
b001001 a
b01110001000000000001 c
1B
0C
0K
b1000000 D
b0000000000000 L
b001010 Y
b0110110 X
b0001010 ^
0T
b00000001000000000001 O
0,
b00000001000000000001 P
b00000001000000000001 Q
#1440
0#
#1450
1#
b000000000000 J
b0000 H
0B
1-
0b
b001010 a
b00000001000000000001 c
b01110001000000000001 m
b00000001000000000001 "Q
1.
b0000 7
b000000000000 9
b00000000000000000000 /
#1460
0#
#1470
1#
0-
1T
b00000000000000000000 O
1,
b1000001 :
b00000000000000000000 P
b00000000000000000000 Q
0.
#1480
0#
#1490
1#
0T
b0110101 X
b0001011 ^
b001011 Y
1b
b00000000000000000000 c
b00000000000000000000 "Q
#1500
0#
#1510
1#
0b
b001011 a
#1520
0#
#1530
1#
1!
1&
b00000001000000000001 (
0*
03
b0001 8
b000000000001 '
#1540
0#
#1550
1#
12
15
1%
1U
#1560
0#
#1570
1#
b000001 Z
1]
1[
#1580
0#
#1590
1#
b00000100000000001100 `
b000010 Z
b0110110 X
b0001010 ^
b00000100000000001100 W
b00000100000000001100 (
b0100 8
b000000001100 '
#1600
0#
#1610
1#
b0110111 X
b0001001 ^
b000011 Z
b11110000000000000000 `
b11110000000000000000 W
b11110000000000000000 (
b1111 4
b0000 8
b000000000000 '
#1620
0#
#1630
1#
b00100100000000001010 `
b000100 Z
b0111000 X
b0001000 ^
b00100100000000001010 W
b00100100000000001010 (
b0010 4
b0100 8
b000000001010 '
#1640
0#
#1650
1#
b0111001 X
b0000111 ^
b000101 Z
b00000010000000000010 `
b00000010000000000010 W
b00000010000000000010 (
b0000 4
b0010 8
b000000000010 '
#1660
0#
#1670
1#
b00000010000000000011 `
b000110 Z
b0111010 X
b0000110 ^
b00000010000000000011 W
b00000010000000000011 (
b000000000011 '
#1680
0#
#1690
1#
b0111011 X
b0000101 ^
b000111 Z
b00000011000000000100 `
b00000011000000000100 W
b00000011000000000100 (
b0011 8
b000000000100 '
#1700
0#
#1710
1#
b11110000000000000000 `
b001000 Z
b0111100 X
b0000100 ^
b11110000000000000000 W
b11110000000000000000 (
b1111 4
b0000 8
b000000000000 '
#1720
0#
#1730
1#
b0111101 X
b0000011 ^
b001001 Z
#1740
0#
#1750
1#
b01110001000000000001 `
b001010 Z
b0111110 X
b0000010 ^
b01110001000000000001 W
b01110001000000000001 (
b0111 4
b0001 8
b000000000001 '
#1760
0#
#1770
1#
b0111111 X
b0000001 ^
b001011 Z
1V
b00000000000000000000 `
b00000000000000000000 W
1*
13
b00000000000000000000 (
b0000 4
b0000 8
b000000000000 '
#1780
0#
#1790
1#
02
b1000000 X
b0000000 ^
05
0%
0U
0[
#1800
0#
#1810
1#
0]
1)
1+
#1820
0#
#1830
1#
0)
1?
1K
b0000000 ;
b0000000 D
b0000000 :
0+
#1840
0#
#1850
1#
0,
1C
b0000001 G
b000000000011 0
b000000000011 1
b000001 =
#1860
0#
#1870
1#
b000000001100 0
1B
b0000010 G
b0000001 D
b0000000000010 L
b000000000011 F
b000010 =
b000000001100 1
#1880
0#
#1890
1#
b000000000010 J
b0010 H
1-
b0000011 G
b0000010 D
b0000000001100 L
b000000010100 0
b000000010100 1
b0010 7
b000000000010 9
b000011 =
1.
b00000010000000000010 /
#1900
0#
#1910
1#
b000000000000 0
b0000100 G
b0000011 D
b0000000010100 L
b000000001100 J
b0100 H
1S
b00000010000000000010 O
b0000001 :
b00000010000000000010 P
b00000010000000000010 Q
b0100 7
b000000001100 9
b000100 =
b000000000000 1
b00000100000000001100 /
#1920
0#
#1930
1#
b0000010 :
b00000100000000001100 O
b0111111 "F
b0000001 "L
0N
b000001 "G
b000000010100 J
b0101 H
0B
b0000101 G
b0000100 D
b0000001 ;
b00000010000000000010 c
1"P
b00000010000000000010 "Q
b0101 7
b000000010100 9
b000101 =
b00000100000000001100 P
b00000100000000001100 Q
b00000101000000010100 /
#1940
0#
#1950
1#
b000000000010 0
b00000010000000000010 "R
b000001 "O
b00000100000000001100 "Q
b00000100000000001100 c
0-
b0000110 G
b0000101 D
b0000010 ;
b000010 "G
b0111110 "F
b0000010 "L
b00000101000000010100 O
b0000011 :
b00000101000000010100 P
b00000101000000010100 Q
b000110 =
0.
b000000000010 1
#1960
0#
#1970
1#
0S
b0111101 "F
b0000011 "L
b000011 "G
1B
b0010 E
b0000111 G
b0000110 D
b0000000000010 L
b0000000 ;
b00000101000000010100 c
b00000010000000000010 "N
b000010 "O
b00000101000000010100 "Q
b00000100000000001100 "S
b000000000011 0
b000000000011 1
b00000010000000000010 R
b000111 =
#1980
0#
#1990
1#
b000000000100 0
b00000101000000010100 "T
0"P
b000011 "O
b0000 E
b0010 6
1-
b0001000 G
b0000111 D
b0000000000011 L
b000000000010 J
b0010 H
b0010 7
b000000000010 9
b001000 =
b00100101000000010100 /
1.
b000000000100 1
b00100010000000000010 /
#2000
0#
#2010
1#
b0000110 :
1S
b00100010000000000010 O
b000000000011 J
b0000 6
b0001001 G
b0001000 D
b0000000000100 L
b000000000000 0
b000000000000 1
b000000000011 9
b001001 =
b00000010000000000010 /
b00100010000000000010 P
b00100010000000000010 Q
b00000010000000000011 /
#2020
0#
#2030
1#
1"P
b00100010000000000010 "Q
b00100010000000000010 c
0B
b0001010 G
b0001001 D
b0000001 ;
b000000000100 J
b0011 H
b000100 "G
b0111100 "F
b0000100 "L
b00000010000000000011 O
b0000111 :
b00000010000000000011 P
b00000010000000000011 Q
b0011 7
b000000000100 9
b001010 =
b00000011000000000100 /
#2040
0#
#2050
1#
b0001000 :
b00000011000000000100 O
b0111011 "F
b0000101 "L
b000101 "G
0-
b0001011 G
b0001010 D
b0000010 ;
b00000010000000000011 c
b000100 "O
b00000010000000000011 "Q
b00100010000000000010 "U
b000000000010 0
b000000000010 1
b001011 =
0.
b00000011000000000100 P
b00000011000000000100 Q
#2060
0#
#2070
1#
b000000000011 0
b00000010000000000011 "V
b000101 "O
b00000011000000000100 "Q
b00000011000000000100 c
1B
b0010 E
b0001100 G
b0001011 D
b0000000000010 L
b0000000 ;
b000110 "G
b0111010 "F
b0000110 "L
0S
b001100 =
b000000000011 1
#2080
0#
#2090
1#
b000000000010 J
b0010 H
b0000 E
b0010 6
1-
b0001101 G
b0001100 D
b0000000000011 L
0"P
b000110 "O
b00000011000000000100 "W
b000000000100 0
b000000000100 1
b0010 7
b000000000010 9
b001101 =
b00100011000000000100 /
1.
b00100010000000000010 /
#2100
0#
#2110
1#
b000000000101 0
b0000 6
b0001110 G
b0001101 D
b0000000000100 L
b000000000011 J
1S
b00100010000000000010 O
b0001011 :
b00100010000000000010 P
b00100010000000000010 Q
b000000000011 9
b001110 =
b00000010000000000010 /
b000000000101 1
b00000010000000000011 /
#2120
0#
#2130
1#
b0001100 :
b00000010000000000011 O
b0111001 "F
b0000111 "L
b000111 "G
b000000000100 J
b0011 H
b0001111 G
b0001110 D
b0000000000101 L
b00100010000000000010 c
1"P
b00100010000000000010 "Q
b000000000001 0
b000000000001 1
b0011 7
b000000000100 9
b001111 =
b00000010000000000011 P
b00000010000000000011 Q
b00000011000000000100 /
#2140
0#
